%!PS-Adobe-3.0 EPSF-3.0
%%Title: LOG_bio-celegans-dir_1.eps
%%Creator: matplotlib version 3.3.4, http://matplotlib.org/
%%CreationDate: Thu Oct 28 18:42:40 2021
%%Orientation: portrait
%%BoundingBox: 90.0 252.0 522.0 540.0
%%EndComments
%%BeginProlog
/mpldict 8 dict def
mpldict begin
/m { moveto } bind def
/l { lineto } bind def
/r { rlineto } bind def
/c { curveto } bind def
/cl { closepath } bind def
/box {
      m
      1 index 0 r
      0 exch r
      neg 0 r
      cl
    } bind def
/clipbox {
      box
      clip
      newpath
    } bind def
%!PS-Adobe-3.0 Resource-Font
%%Title: DejaVu Sans
%%Copyright: Copyright (c) 2003 by Bitstream, Inc. All Rights Reserved. Copyright (c) 2006 by Tavmjong Bah. All Rights Reserved. DejaVu changes are in public domain 
%%Creator: Converted from TrueType to type 3 by PPR
25 dict begin
/_d{bind def}bind def
/_m{moveto}_d
/_l{lineto}_d
/_cl{closepath eofill}_d
/_c{curveto}_d
/_sc{7 -1 roll{setcachedevice}{pop pop pop pop pop pop}ifelse}_d
/_e{exec}_d
/FontName /DejaVuSans def
/PaintType 0 def
/FontMatrix[.001 0 0 .001 0 0]def
/FontBBox[-1021 -463 1793 1232]def
/FontType 3 def
/Encoding [ /space /period /zero /one /two /five /seven /A /C /D /E /F /H /I /J /L /N /O /P /R /S /V /a /c /e /m /n /o /p /r /s /t /u ] def
/FontInfo 10 dict dup begin
/FamilyName (DejaVu Sans) def
/FullName (DejaVu Sans) def
/Notice (Copyright (c) 2003 by Bitstream, Inc. All Rights Reserved. Copyright (c) 2006 by Tavmjong Bah. All Rights Reserved. DejaVu changes are in public domain ) def
/Weight (Book) def
/Version (Version 2.35) def
/ItalicAngle 0.0 def
/isFixedPitch false def
/UnderlinePosition -130 def
/UnderlineThickness 90 def
end readonly def
/CharStrings 34 dict dup begin
/.notdef 0 def
/space{318 0 0 0 0 0 _sc
}_d
/period{318 0 107 0 210 124 _sc
107 124 _m
210 124 _l
210 0 _l
107 0 _l
107 124 _l
_cl}_d
/zero{636 0 66 -13 570 742 _sc
318 664 _m
267 664 229 639 203 589 _c
177 539 165 464 165 364 _c
165 264 177 189 203 139 _c
229 89 267 64 318 64 _c
369 64 407 89 433 139 _c
458 189 471 264 471 364 _c
471 464 458 539 433 589 _c
407 639 369 664 318 664 _c
318 742 _m
399 742 461 709 505 645 _c
548 580 570 486 570 364 _c
570 241 548 147 505 83 _c
461 19 399 -13 318 -13 _c
236 -13 173 19 130 83 _c
87 147 66 241 66 364 _c
66 486 87 580 130 645 _c
173 709 236 742 318 742 _c
_cl}_d
/one{636 0 110 0 544 729 _sc
124 83 _m
285 83 _l
285 639 _l
110 604 _l
110 694 _l
284 729 _l
383 729 _l
383 83 _l
544 83 _l
544 0 _l
124 0 _l
124 83 _l
_cl}_d
/two{{636 0 73 0 536 742 _sc
192 83 _m
536 83 _l
536 0 _l
73 0 _l
73 83 _l
110 121 161 173 226 239 _c
290 304 331 346 348 365 _c
380 400 402 430 414 455 _c
426 479 433 504 433 528 _c
433 566 419 598 392 622 _c
365 646 330 659 286 659 _c
255 659 222 653 188 643 _c
154 632 117 616 78 594 _c
78 694 _l
118 710 155 722 189 730 _c
223 738 255 742 284 742 _c
}_e{359 742 419 723 464 685 _c
509 647 532 597 532 534 _c
532 504 526 475 515 449 _c
504 422 484 390 454 354 _c
446 344 420 317 376 272 _c
332 227 271 164 192 83 _c
_cl}_e}_d
/five{{636 0 77 -13 549 729 _sc
108 729 _m
495 729 _l
495 646 _l
198 646 _l
198 467 _l
212 472 227 476 241 478 _c
255 480 270 482 284 482 _c
365 482 429 459 477 415 _c
525 370 549 310 549 234 _c
549 155 524 94 475 51 _c
426 8 357 -13 269 -13 _c
238 -13 207 -10 175 -6 _c
143 -1 111 6 77 17 _c
77 116 _l
106 100 136 88 168 80 _c
199 72 232 69 267 69 _c
}_e{323 69 368 83 401 113 _c
433 143 450 183 450 234 _c
450 284 433 324 401 354 _c
368 384 323 399 267 399 _c
241 399 214 396 188 390 _c
162 384 135 375 108 363 _c
108 729 _l
_cl}_e}_d
/seven{636 0 82 0 551 729 _sc
82 729 _m
551 729 _l
551 687 _l
286 0 _l
183 0 _l
432 646 _l
82 646 _l
82 729 _l
_cl}_d
/A{684 0 8 0 676 729 _sc
342 632 _m
208 269 _l
476 269 _l
342 632 _l
286 729 _m
398 729 _l
676 0 _l
573 0 _l
507 187 _l
178 187 _l
112 0 _l
8 0 _l
286 729 _l
_cl}_d
/C{{698 0 56 -13 644 742 _sc
644 673 _m
644 569 _l
610 599 575 622 537 638 _c
499 653 460 661 418 661 _c
334 661 270 635 226 584 _c
182 533 160 460 160 364 _c
160 268 182 194 226 143 _c
270 92 334 67 418 67 _c
460 67 499 74 537 90 _c
575 105 610 128 644 159 _c
644 56 _l
609 32 572 15 534 4 _c
496 -7 455 -13 412 -13 _c
302 -13 215 20 151 87 _c
}_e{87 154 56 246 56 364 _c
56 481 87 573 151 641 _c
215 708 302 742 412 742 _c
456 742 497 736 535 725 _c
573 713 610 696 644 673 _c
_cl}_e}_d
/D{770 0 98 0 711 729 _sc
197 648 _m
197 81 _l
316 81 _l
416 81 490 103 537 149 _c
583 195 607 267 607 365 _c
607 463 583 534 537 580 _c
490 625 416 648 316 648 _c
197 648 _l
98 729 _m
301 729 _l
442 729 546 699 612 641 _c
678 582 711 490 711 365 _c
711 239 677 147 611 88 _c
545 29 441 0 301 0 _c
98 0 _l
98 729 _l
_cl}_d
/E{632 0 98 0 568 729 _sc
98 729 _m
559 729 _l
559 646 _l
197 646 _l
197 430 _l
544 430 _l
544 347 _l
197 347 _l
197 83 _l
568 83 _l
568 0 _l
98 0 _l
98 729 _l
_cl}_d
/F{575 0 98 0 517 729 _sc
98 729 _m
517 729 _l
517 646 _l
197 646 _l
197 431 _l
486 431 _l
486 348 _l
197 348 _l
197 0 _l
98 0 _l
98 729 _l
_cl}_d
/H{752 0 98 0 654 729 _sc
98 729 _m
197 729 _l
197 430 _l
555 430 _l
555 729 _l
654 729 _l
654 0 _l
555 0 _l
555 347 _l
197 347 _l
197 0 _l
98 0 _l
98 729 _l
_cl}_d
/I{295 0 98 0 197 729 _sc
98 729 _m
197 729 _l
197 0 _l
98 0 _l
98 729 _l
_cl}_d
/J{295 0 -51 -199 197 729 _sc
98 729 _m
197 729 _l
197 51 _l
197 -36 180 -99 147 -139 _c
113 -179 60 -199 -13 -199 _c
-51 -199 _l
-51 -116 _l
-20 -116 _l
22 -116 53 -103 71 -79 _c
89 -55 98 -11 98 51 _c
98 729 _l
_cl}_d
/L{557 0 98 0 552 729 _sc
98 729 _m
197 729 _l
197 83 _l
552 83 _l
552 0 _l
98 0 _l
98 729 _l
_cl}_d
/N{748 0 98 0 650 729 _sc
98 729 _m
231 729 _l
554 119 _l
554 729 _l
650 729 _l
650 0 _l
517 0 _l
194 610 _l
194 0 _l
98 0 _l
98 729 _l
_cl}_d
/O{787 0 56 -13 731 742 _sc
394 662 _m
322 662 265 635 223 582 _c
181 528 160 456 160 364 _c
160 272 181 199 223 146 _c
265 92 322 66 394 66 _c
465 66 522 92 564 146 _c
606 199 627 272 627 364 _c
627 456 606 528 564 582 _c
522 635 465 662 394 662 _c
394 742 _m
496 742 577 707 639 639 _c
700 571 731 479 731 364 _c
731 248 700 157 639 89 _c
577 21 496 -13 394 -13 _c
291 -13 209 21 148 89 _c
86 157 56 248 56 364 _c
56 479 86 571 148 639 _c
209 707 291 742 394 742 _c
_cl}_d
/P{603 0 98 0 569 729 _sc
197 648 _m
197 374 _l
321 374 _l
367 374 402 385 427 409 _c
452 433 465 467 465 511 _c
465 555 452 588 427 612 _c
402 636 367 648 321 648 _c
197 648 _l
98 729 _m
321 729 _l
402 729 464 710 506 673 _c
548 636 569 582 569 511 _c
569 439 548 384 506 348 _c
464 311 402 293 321 293 _c
197 293 _l
197 0 _l
98 0 _l
98 729 _l
_cl}_d
/R{{695 0 98 0 666 729 _sc
444 342 _m
465 334 486 319 506 296 _c
526 272 546 240 566 199 _c
666 0 _l
560 0 _l
467 187 _l
443 235 419 268 397 284 _c
374 300 343 308 304 308 _c
197 308 _l
197 0 _l
98 0 _l
98 729 _l
321 729 _l
404 729 466 711 507 677 _c
548 642 569 589 569 519 _c
569 473 558 434 537 404 _c
515 374 484 353 444 342 _c
197 648 _m
197 389 _l
321 389 _l
}_e{368 389 404 400 428 422 _c
452 444 465 476 465 519 _c
465 561 452 593 428 615 _c
404 637 368 648 321 648 _c
197 648 _l
_cl}_e}_d
/S{{635 0 66 -13 579 742 _sc
535 705 _m
535 609 _l
497 627 462 640 429 649 _c
395 657 363 662 333 662 _c
279 662 237 651 208 631 _c
179 610 165 580 165 542 _c
165 510 174 485 194 469 _c
213 452 250 439 304 429 _c
364 417 _l
437 403 491 378 526 343 _c
561 307 579 260 579 201 _c
579 130 555 77 508 41 _c
460 5 391 -13 300 -13 _c
265 -13 228 -9 189 -2 _c
}_e{150 5 110 16 69 32 _c
69 134 _l
109 111 148 94 186 83 _c
224 71 262 66 300 66 _c
356 66 399 77 430 99 _c
460 121 476 152 476 194 _c
476 230 465 258 443 278 _c
421 298 385 313 335 323 _c
275 335 _l
201 349 148 372 115 404 _c
82 435 66 478 66 534 _c
66 598 88 649 134 686 _c
179 723 242 742 322 742 _c
356 742 390 739 426 733 _c
461 727 497 717 535 705 _c
}_e{_cl}_e}_d
/V{684 0 8 0 676 729 _sc
286 0 _m
8 729 _l
111 729 _l
342 115 _l
573 729 _l
676 729 _l
398 0 _l
286 0 _l
_cl}_d
/a{{613 0 60 -13 522 560 _sc
343 275 _m
270 275 220 266 192 250 _c
164 233 150 205 150 165 _c
150 133 160 107 181 89 _c
202 70 231 61 267 61 _c
317 61 357 78 387 114 _c
417 149 432 196 432 255 _c
432 275 _l
343 275 _l
522 312 _m
522 0 _l
432 0 _l
432 83 _l
411 49 385 25 355 10 _c
325 -5 287 -13 243 -13 _c
187 -13 142 2 109 33 _c
76 64 60 106 60 159 _c
}_e{60 220 80 266 122 298 _c
163 329 224 345 306 345 _c
432 345 _l
432 354 _l
432 395 418 427 391 450 _c
364 472 326 484 277 484 _c
245 484 215 480 185 472 _c
155 464 127 453 100 439 _c
100 522 _l
132 534 164 544 195 550 _c
226 556 256 560 286 560 _c
365 560 424 539 463 498 _c
502 457 522 395 522 312 _c
_cl}_e}_d
/c{{550 0 55 -13 488 560 _sc
488 526 _m
488 442 _l
462 456 437 466 411 473 _c
385 480 360 484 334 484 _c
276 484 230 465 198 428 _c
166 391 150 339 150 273 _c
150 206 166 154 198 117 _c
230 80 276 62 334 62 _c
360 62 385 65 411 72 _c
437 79 462 90 488 104 _c
488 21 _l
462 9 436 0 410 -5 _c
383 -10 354 -13 324 -13 _c
242 -13 176 12 128 64 _c
}_e{79 115 55 185 55 273 _c
55 362 79 432 128 483 _c
177 534 244 560 330 560 _c
358 560 385 557 411 551 _c
437 545 463 537 488 526 _c
_cl}_e}_d
/e{{615 0 55 -13 562 560 _sc
562 296 _m
562 252 _l
149 252 _l
153 190 171 142 205 110 _c
238 78 284 62 344 62 _c
378 62 412 66 444 74 _c
476 82 509 95 541 113 _c
541 28 _l
509 14 476 3 442 -3 _c
408 -9 373 -13 339 -13 _c
251 -13 182 12 131 62 _c
80 112 55 181 55 268 _c
55 357 79 428 127 481 _c
175 533 241 560 323 560 _c
397 560 455 536 498 489 _c
}_e{540 441 562 377 562 296 _c
472 322 _m
471 371 457 410 431 440 _c
404 469 368 484 324 484 _c
274 484 234 469 204 441 _c
174 413 156 373 152 322 _c
472 322 _l
_cl}_e}_d
/m{{974 0 91 0 889 560 _sc
520 442 _m
542 482 569 511 600 531 _c
631 550 668 560 711 560 _c
767 560 811 540 842 500 _c
873 460 889 403 889 330 _c
889 0 _l
799 0 _l
799 327 _l
799 379 789 418 771 444 _c
752 469 724 482 686 482 _c
639 482 602 466 575 435 _c
548 404 535 362 535 309 _c
535 0 _l
445 0 _l
445 327 _l
445 379 435 418 417 444 _c
398 469 369 482 331 482 _c
}_e{285 482 248 466 221 435 _c
194 404 181 362 181 309 _c
181 0 _l
91 0 _l
91 547 _l
181 547 _l
181 462 _l
201 495 226 520 255 536 _c
283 552 317 560 357 560 _c
397 560 430 550 458 530 _c
486 510 506 480 520 442 _c
_cl}_e}_d
/n{634 0 91 0 549 560 _sc
549 330 _m
549 0 _l
459 0 _l
459 327 _l
459 379 448 417 428 443 _c
408 469 378 482 338 482 _c
289 482 251 466 223 435 _c
195 404 181 362 181 309 _c
181 0 _l
91 0 _l
91 547 _l
181 547 _l
181 462 _l
202 494 227 519 257 535 _c
286 551 320 560 358 560 _c
420 560 468 540 500 501 _c
532 462 549 405 549 330 _c
_cl}_d
/o{612 0 55 -13 557 560 _sc
306 484 _m
258 484 220 465 192 427 _c
164 389 150 338 150 273 _c
150 207 163 156 191 118 _c
219 80 257 62 306 62 _c
354 62 392 80 420 118 _c
448 156 462 207 462 273 _c
462 337 448 389 420 427 _c
392 465 354 484 306 484 _c
306 560 _m
384 560 445 534 490 484 _c
534 433 557 363 557 273 _c
557 183 534 113 490 63 _c
445 12 384 -13 306 -13 _c
227 -13 165 12 121 63 _c
77 113 55 183 55 273 _c
55 363 77 433 121 484 _c
165 534 227 560 306 560 _c
_cl}_d
/p{{635 0 91 -207 580 560 _sc
181 82 _m
181 -207 _l
91 -207 _l
91 547 _l
181 547 _l
181 464 _l
199 496 223 520 252 536 _c
281 552 316 560 356 560 _c
422 560 476 533 518 481 _c
559 428 580 359 580 273 _c
580 187 559 117 518 65 _c
476 13 422 -13 356 -13 _c
316 -13 281 -5 252 10 _c
223 25 199 49 181 82 _c
487 273 _m
487 339 473 390 446 428 _c
418 466 381 485 334 485 _c
}_e{286 485 249 466 222 428 _c
194 390 181 339 181 273 _c
181 207 194 155 222 117 _c
249 79 286 61 334 61 _c
381 61 418 79 446 117 _c
473 155 487 207 487 273 _c
_cl}_e}_d
/r{411 0 91 0 411 560 _sc
411 463 _m
401 469 390 473 378 476 _c
366 478 353 480 339 480 _c
288 480 249 463 222 430 _c
194 397 181 350 181 288 _c
181 0 _l
91 0 _l
91 547 _l
181 547 _l
181 462 _l
199 495 224 520 254 536 _c
284 552 321 560 365 560 _c
371 560 378 559 386 559 _c
393 558 401 557 411 555 _c
411 463 _l
_cl}_d
/s{{521 0 54 -13 472 560 _sc
443 531 _m
443 446 _l
417 458 391 468 364 475 _c
336 481 308 485 279 485 _c
234 485 200 478 178 464 _c
156 450 145 430 145 403 _c
145 382 153 366 169 354 _c
185 342 217 330 265 320 _c
296 313 _l
360 299 405 279 432 255 _c
458 230 472 195 472 151 _c
472 100 452 60 412 31 _c
372 1 316 -13 246 -13 _c
216 -13 186 -10 154 -5 _c
}_e{122 0 89 8 54 20 _c
54 113 _l
87 95 120 82 152 74 _c
184 65 216 61 248 61 _c
290 61 323 68 346 82 _c
368 96 380 117 380 144 _c
380 168 371 187 355 200 _c
339 213 303 226 247 238 _c
216 245 _l
160 257 119 275 95 299 _c
70 323 58 356 58 399 _c
58 450 76 490 112 518 _c
148 546 200 560 268 560 _c
301 560 332 557 362 552 _c
391 547 418 540 443 531 _c
}_e{_cl}_e}_d
/t{392 0 27 0 368 702 _sc
183 702 _m
183 547 _l
368 547 _l
368 477 _l
183 477 _l
183 180 _l
183 135 189 106 201 94 _c
213 81 238 75 276 75 _c
368 75 _l
368 0 _l
276 0 _l
206 0 158 13 132 39 _c
106 65 93 112 93 180 _c
93 477 _l
27 477 _l
27 547 _l
93 547 _l
93 702 _l
183 702 _l
_cl}_d
/u{634 0 85 -13 543 560 _sc
85 216 _m
85 547 _l
175 547 _l
175 219 _l
175 167 185 129 205 103 _c
225 77 255 64 296 64 _c
344 64 383 79 411 110 _c
439 141 453 183 453 237 _c
453 547 _l
543 547 _l
543 0 _l
453 0 _l
453 84 _l
431 50 405 26 377 10 _c
348 -5 315 -13 277 -13 _c
214 -13 166 6 134 45 _c
101 83 85 140 85 216 _c
311 560 _m
311 560 _l
_cl}_d
end readonly def

/BuildGlyph
 {exch begin
 CharStrings exch
 2 copy known not{pop /.notdef}if
 true 3 1 roll get exec
 end}_d

/BuildChar {
 1 index /Encoding get exch get
 1 index /BuildGlyph get exec
}_d

FontName currentdict end definefont pop
end
%%EndProlog
mpldict begin
90 252 translate
432 288 0 0 clipbox
gsave
0 0 m
432 0 l
432 288 l
0 288 l
cl
grestore
gsave
80.12 76.62 m
416.88 76.62 l
416.88 272.88 l
80.12 272.88 l
cl
1.000 setgray
fill
grestore
gsave
336.8 196.3 80.12 76.62 clipbox
84.3295 88.483112 m
92.7485 88.483112 l
92.7485 87.804142 l
84.3295 87.804142 l
cl
0.122 0.467 0.706 setrgbcolor
fill
grestore
gsave
336.8 196.3 80.12 76.62 clipbox
101.1675 88.483112 m
109.5865 88.483112 l
109.5865 88.332229 l
101.1675 88.332229 l
cl
0.122 0.467 0.706 setrgbcolor
fill
grestore
gsave
336.8 196.3 80.12 76.62 clipbox
118.0055 88.483112 m
126.4245 88.483112 l
126.4245 107.343385 l
118.0055 107.343385 l
cl
0.122 0.467 0.706 setrgbcolor
fill
grestore
gsave
336.8 196.3 80.12 76.62 clipbox
134.8435 88.483112 m
143.2625 88.483112 l
143.2625 94.744722 l
134.8435 94.744722 l
cl
0.122 0.467 0.706 setrgbcolor
fill
grestore
gsave
336.8 196.3 80.12 76.62 clipbox
151.6815 88.483112 m
160.1005 88.483112 l
160.1005 87.125172 l
151.6815 87.125172 l
cl
0.122 0.467 0.706 setrgbcolor
fill
grestore
gsave
336.8 196.3 80.12 76.62 clipbox
168.5195 88.483112 m
176.9385 88.483112 l
176.9385 263.959091 l
168.5195 263.959091 l
cl
0.122 0.467 0.706 setrgbcolor
fill
grestore
gsave
336.8 196.3 80.12 76.62 clipbox
185.3575 88.483112 m
193.7765 88.483112 l
193.7765 98.7431 l
185.3575 98.7431 l
cl
0.122 0.467 0.706 setrgbcolor
fill
grestore
gsave
336.8 196.3 80.12 76.62 clipbox
202.1955 88.483112 m
210.6145 88.483112 l
210.6145 85.540909 l
202.1955 85.540909 l
cl
0.122 0.467 0.706 setrgbcolor
fill
grestore
gsave
336.8 196.3 80.12 76.62 clipbox
219.0335 88.483112 m
227.4525 88.483112 l
227.4525 87.577819 l
219.0335 87.577819 l
cl
0.122 0.467 0.706 setrgbcolor
fill
grestore
gsave
336.8 196.3 80.12 76.62 clipbox
235.8715 88.483112 m
244.2905 88.483112 l
244.2905 88.181347 l
235.8715 88.181347 l
cl
0.122 0.467 0.706 setrgbcolor
fill
grestore
gsave
336.8 196.3 80.12 76.62 clipbox
252.7095 88.483112 m
261.1285 88.483112 l
261.1285 87.955024 l
252.7095 87.955024 l
cl
0.122 0.467 0.706 setrgbcolor
fill
grestore
gsave
336.8 196.3 80.12 76.62 clipbox
269.5475 88.483112 m
277.9665 88.483112 l
277.9665 88.483112 l
269.5475 88.483112 l
cl
0.122 0.467 0.706 setrgbcolor
fill
grestore
gsave
336.8 196.3 80.12 76.62 clipbox
286.3855 88.483112 m
294.8045 88.483112 l
294.8045 88.558553 l
286.3855 88.558553 l
cl
0.122 0.467 0.706 setrgbcolor
fill
grestore
gsave
336.8 196.3 80.12 76.62 clipbox
303.2235 88.483112 m
311.6425 88.483112 l
311.6425 118.961313 l
303.2235 118.961313 l
cl
0.122 0.467 0.706 setrgbcolor
fill
grestore
gsave
336.8 196.3 80.12 76.62 clipbox
320.0615 88.483112 m
328.4805 88.483112 l
328.4805 94.518399 l
320.0615 94.518399 l
cl
0.122 0.467 0.706 setrgbcolor
fill
grestore
gsave
336.8 196.3 80.12 76.62 clipbox
336.8995 88.483112 m
345.3185 88.483112 l
345.3185 165.357584 l
336.8995 165.357584 l
cl
0.122 0.467 0.706 setrgbcolor
fill
grestore
gsave
336.8 196.3 80.12 76.62 clipbox
353.7375 88.483112 m
362.1565 88.483112 l
362.1565 94.518399 l
353.7375 94.518399 l
cl
0.122 0.467 0.706 setrgbcolor
fill
grestore
gsave
336.8 196.3 80.12 76.62 clipbox
370.5755 88.483112 m
378.9945 88.483112 l
378.9945 90.067375 l
370.5755 90.067375 l
cl
0.122 0.467 0.706 setrgbcolor
fill
grestore
gsave
336.8 196.3 80.12 76.62 clipbox
387.4135 88.483112 m
395.8325 88.483112 l
395.8325 88.181347 l
387.4135 88.181347 l
cl
0.122 0.467 0.706 setrgbcolor
fill
grestore
gsave
336.8 196.3 80.12 76.62 clipbox
404.2515 88.483112 m
412.6705 88.483112 l
412.6705 92.556931 l
404.2515 92.556931 l
cl
0.122 0.467 0.706 setrgbcolor
fill
grestore
0.800 setlinewidth
1 setlinejoin
0 setlinecap
[] 0 setdash
0.000 setgray
gsave
/o {
gsave
newpath
translate
0.8 setlinewidth
1 setlinejoin
0 setlinecap
0 0 m
0 -3.5 l

gsave
0.000 setgray
fill
grestore
stroke
grestore
} bind def
88.539 76.62 o
grestore
/DejaVuSans findfont
14.000 scalefont
setfont
gsave
92.406188 49.370000 translate
90.000000 rotate
0.000000 0 m /C glyphshow
9.775391 0 m /N glyphshow
grestore
gsave
/o {
gsave
newpath
translate
0.8 setlinewidth
1 setlinejoin
0 setlinecap
0 0 m
0 -3.5 l

gsave
0.000 setgray
fill
grestore
stroke
grestore
} bind def
105.377 76.62 o
grestore
gsave
109.244187 52.479375 translate
90.000000 rotate
0.000000 0 m /P glyphshow
7.567383 0 m /A glyphshow
grestore
gsave
/o {
gsave
newpath
translate
0.8 setlinewidth
1 setlinejoin
0 setlinecap
0 0 m
0 -3.5 l

gsave
0.000 setgray
fill
grestore
stroke
grestore
} bind def
122.215 76.62 o
grestore
gsave
126.082188 50.901250 translate
90.000000 rotate
0.000000 0 m /S glyphshow
9.136719 0 m /A glyphshow
grestore
gsave
/o {
gsave
newpath
translate
0.8 setlinewidth
1 setlinejoin
0 setlinecap
0 0 m
0 -3.5 l

gsave
0.000 setgray
fill
grestore
stroke
grestore
} bind def
139.053 76.62 o
grestore
gsave
142.920187 49.713750 translate
90.000000 rotate
0.000000 0 m /S glyphshow
8.886719 0 m /O glyphshow
grestore
gsave
/o {
gsave
newpath
translate
0.8 setlinewidth
1 setlinejoin
0 setlinecap
0 0 m
0 -3.5 l

gsave
0.000 setgray
fill
grestore
stroke
grestore
} bind def
155.891 76.62 o
grestore
gsave
159.758187 56.166875 translate
90.000000 rotate
0.000000 0 m /J glyphshow
3.878906 0 m /A glyphshow
grestore
gsave
/o {
gsave
newpath
translate
0.8 setlinewidth
1 setlinejoin
0 setlinecap
0 0 m
0 -3.5 l

gsave
0.000 setgray
fill
grestore
stroke
grestore
} bind def
172.729 76.62 o
grestore
gsave
176.596187 46.526250 translate
90.000000 rotate
0.000000 0 m /H glyphshow
10.527344 0 m /P glyphshow
18.969727 0 m /I glyphshow
grestore
gsave
/o {
gsave
newpath
translate
0.8 setlinewidth
1 setlinejoin
0 setlinecap
0 0 m
0 -3.5 l

gsave
0.000 setgray
fill
grestore
stroke
grestore
} bind def
189.567 76.62 o
grestore
gsave
193.434188 44.182500 translate
90.000000 rotate
0.000000 0 m /H glyphshow
10.527344 0 m /D glyphshow
21.307617 0 m /I glyphshow
grestore
gsave
/o {
gsave
newpath
translate
0.8 setlinewidth
1 setlinejoin
0 setlinecap
0 0 m
0 -3.5 l

gsave
0.000 setgray
fill
grestore
stroke
grestore
} bind def
206.405 76.62 o
grestore
gsave
210.272187 33.026250 translate
90.000000 rotate
0.000000 0 m /L glyphshow
7.799805 0 m /L glyphshow
15.599609 0 m /H glyphshow
26.126953 0 m /N glyphshow
grestore
gsave
/o {
gsave
newpath
translate
0.8 setlinewidth
1 setlinejoin
0 setlinecap
0 0 m
0 -3.5 l

gsave
0.000 setgray
fill
grestore
stroke
grestore
} bind def
223.243 76.62 o
grestore
gsave
227.110187 50.088750 translate
90.000000 rotate
0.000000 0 m /A glyphshow
9.952148 0 m /A glyphshow
grestore
gsave
/o {
gsave
newpath
translate
0.8 setlinewidth
1 setlinejoin
0 setlinecap
0 0 m
0 -3.5 l

gsave
0.000 setgray
fill
grestore
stroke
grestore
} bind def
240.081 76.62 o
grestore
gsave
243.948187 50.932500 translate
90.000000 rotate
0.000000 0 m /R glyphshow
9.102539 0 m /A glyphshow
grestore
gsave
/o {
gsave
newpath
translate
0.8 setlinewidth
1 setlinejoin
0 setlinecap
0 0 m
0 -3.5 l

gsave
0.000 setgray
fill
grestore
stroke
grestore
} bind def
256.919 76.62 o
grestore
gsave
260.786187 33.823125 translate
90.000000 rotate
0.000000 0 m /C glyphshow
9.775391 0 m /C glyphshow
19.550781 0 m /L glyphshow
27.350586 0 m /P glyphshow
grestore
gsave
/o {
gsave
newpath
translate
0.8 setlinewidth
1 setlinejoin
0 setlinecap
0 0 m
0 -3.5 l

gsave
0.000 setgray
fill
grestore
stroke
grestore
} bind def
273.757 76.62 o
grestore
gsave
277.624187 40.526250 translate
90.000000 rotate
0.000000 0 m /C glyphshow
9.775391 0 m /A glyphshow
19.352539 0 m /R glyphshow
grestore
gsave
/o {
gsave
newpath
translate
0.8 setlinewidth
1 setlinejoin
0 setlinecap
0 0 m
0 -3.5 l

gsave
0.000 setgray
fill
grestore
stroke
grestore
} bind def
290.595 76.62 o
grestore
gsave
294.462187 41.573125 translate
90.000000 rotate
0.000000 0 m /N glyphshow
10.472656 0 m /L glyphshow
18.272461 0 m /C glyphshow
grestore
gsave
/o {
gsave
newpath
translate
0.8 setlinewidth
1 setlinejoin
0 setlinecap
0 0 m
0 -3.5 l

gsave
0.000 setgray
fill
grestore
stroke
grestore
} bind def
307.433 76.62 o
grestore
gsave
311.300187 49.260625 translate
90.000000 rotate
0.000000 0 m /L glyphshow
7.799805 0 m /P glyphshow
16.242188 0 m /I glyphshow
grestore
gsave
/o {
gsave
newpath
translate
0.8 setlinewidth
1 setlinejoin
0 setlinecap
0 0 m
0 -3.5 l

gsave
0.000 setgray
fill
grestore
stroke
grestore
} bind def
324.271 76.62 o
grestore
gsave
328.138187 51.448125 translate
90.000000 rotate
0.000000 0 m /P glyphshow
8.442383 0 m /R glyphshow
grestore
gsave
/o {
gsave
newpath
translate
0.8 setlinewidth
1 setlinejoin
0 setlinecap
0 0 m
0 -3.5 l

gsave
0.000 setgray
fill
grestore
stroke
grestore
} bind def
341.109 76.62 o
grestore
gsave
344.976187 50.057500 translate
90.000000 rotate
0.000000 0 m /C glyphshow
9.775391 0 m /C glyphshow
grestore
gsave
/o {
gsave
newpath
translate
0.8 setlinewidth
1 setlinejoin
0 setlinecap
0 0 m
0 -3.5 l

gsave
0.000 setgray
fill
grestore
stroke
grestore
} bind def
357.947 76.62 o
grestore
gsave
361.814187 49.057500 translate
90.000000 rotate
0.000000 0 m /D glyphshow
10.780273 0 m /C glyphshow
grestore
gsave
/o {
gsave
newpath
translate
0.8 setlinewidth
1 setlinejoin
0 setlinecap
0 0 m
0 -3.5 l

gsave
0.000 setgray
fill
grestore
stroke
grestore
} bind def
374.785 76.62 o
grestore
gsave
378.652187 41.416875 translate
90.000000 rotate
0.000000 0 m /E glyphshow
8.845703 0 m /V glyphshow
18.422852 0 m /C glyphshow
grestore
gsave
/o {
gsave
newpath
translate
0.8 setlinewidth
1 setlinejoin
0 setlinecap
0 0 m
0 -3.5 l

gsave
0.000 setgray
fill
grestore
stroke
grestore
} bind def
391.623 76.62 o
grestore
gsave
395.490187 41.276250 translate
90.000000 rotate
0.000000 0 m /V glyphshow
9.577148 0 m /R glyphshow
18.554688 0 m /C glyphshow
grestore
gsave
/o {
gsave
newpath
translate
0.8 setlinewidth
1 setlinejoin
0 setlinecap
0 0 m
0 -3.5 l

gsave
0.000 setgray
fill
grestore
stroke
grestore
} bind def
408.461 76.62 o
grestore
gsave
412.328187 42.260625 translate
90.000000 rotate
0.000000 0 m /C glyphshow
9.775391 0 m /L glyphshow
17.575195 0 m /C glyphshow
grestore
gsave
218.375000 18.385625 translate
0.000000 rotate
0.000000 0 m /F glyphshow
7.302734 0 m /e glyphshow
15.916016 0 m /a glyphshow
24.495117 0 m /t glyphshow
29.984375 0 m /u glyphshow
38.857422 0 m /r glyphshow
44.363281 0 m /e glyphshow
52.976562 0 m /s glyphshow
grestore
gsave
/o {
gsave
newpath
translate
0.8 setlinewidth
1 setlinejoin
0 setlinecap
-0 0 m
-3.5 0 l

gsave
0.000 setgray
fill
grestore
stroke
grestore
} bind def
80.12 88.4831 o
grestore
gsave
33.041875 83.162799 translate
0.000000 rotate
0.000000 0 m /zero glyphshow
8.907227 0 m /period glyphshow
13.357422 0 m /zero glyphshow
22.264648 0 m /zero glyphshow
31.171875 0 m /zero glyphshow
grestore
gsave
/o {
gsave
newpath
translate
0.8 setlinewidth
1 setlinejoin
0 setlinecap
-0 0 m
-3.5 0 l

gsave
0.000 setgray
fill
grestore
stroke
grestore
} bind def
80.12 122.95 o
grestore
gsave
33.041875 117.629948 translate
0.000000 rotate
0.000000 0 m /zero glyphshow
8.907227 0 m /period glyphshow
13.357422 0 m /zero glyphshow
22.264648 0 m /two glyphshow
31.171875 0 m /five glyphshow
grestore
gsave
/o {
gsave
newpath
translate
0.8 setlinewidth
1 setlinejoin
0 setlinecap
-0 0 m
-3.5 0 l

gsave
0.000 setgray
fill
grestore
stroke
grestore
} bind def
80.12 157.417 o
grestore
gsave
33.041875 152.097097 translate
0.000000 rotate
0.000000 0 m /zero glyphshow
8.907227 0 m /period glyphshow
13.357422 0 m /zero glyphshow
22.264648 0 m /five glyphshow
31.171875 0 m /zero glyphshow
grestore
gsave
/o {
gsave
newpath
translate
0.8 setlinewidth
1 setlinejoin
0 setlinecap
-0 0 m
-3.5 0 l

gsave
0.000 setgray
fill
grestore
stroke
grestore
} bind def
80.12 191.885 o
grestore
gsave
33.041875 186.564245 translate
0.000000 rotate
0.000000 0 m /zero glyphshow
8.907227 0 m /period glyphshow
13.357422 0 m /zero glyphshow
22.264648 0 m /seven glyphshow
31.171875 0 m /five glyphshow
grestore
gsave
/o {
gsave
newpath
translate
0.8 setlinewidth
1 setlinejoin
0 setlinecap
-0 0 m
-3.5 0 l

gsave
0.000 setgray
fill
grestore
stroke
grestore
} bind def
80.12 226.352 o
grestore
gsave
33.041875 221.031394 translate
0.000000 rotate
0.000000 0 m /zero glyphshow
8.907227 0 m /period glyphshow
13.357422 0 m /one glyphshow
22.264648 0 m /zero glyphshow
31.171875 0 m /zero glyphshow
grestore
gsave
/o {
gsave
newpath
translate
0.8 setlinewidth
1 setlinejoin
0 setlinecap
-0 0 m
-3.5 0 l

gsave
0.000 setgray
fill
grestore
stroke
grestore
} bind def
80.12 260.819 o
grestore
gsave
33.041875 255.498543 translate
0.000000 rotate
0.000000 0 m /zero glyphshow
8.907227 0 m /period glyphshow
13.357422 0 m /one glyphshow
22.264648 0 m /two glyphshow
31.171875 0 m /five glyphshow
grestore
gsave
26.135625 113.578125 translate
90.000000 rotate
0.000000 0 m /I glyphshow
4.128906 0 m /m glyphshow
17.766602 0 m /p glyphshow
26.653320 0 m /o glyphshow
35.218750 0 m /r glyphshow
40.974609 0 m /t glyphshow
46.463867 0 m /a glyphshow
55.042969 0 m /n glyphshow
63.916016 0 m /c glyphshow
71.613281 0 m /e glyphshow
80.226562 0 m /space glyphshow
84.676758 0 m /s glyphshow
91.970703 0 m /c glyphshow
99.667969 0 m /o glyphshow
108.233398 0 m /r glyphshow
113.739258 0 m /e glyphshow
grestore
0 setlinejoin
2 setlinecap
gsave
80.12 76.62 m
80.12 272.88 l
stroke
grestore
gsave
416.88 76.62 m
416.88 272.88 l
stroke
grestore
gsave
80.12 76.62 m
416.88 76.62 l
stroke
grestore
gsave
80.12 272.88 m
416.88 272.88 l
stroke
grestore

end
showpage
